{
    "KPlugin": {
        "Category": "Window Management",
        "Description": "Allows you to overview virtual desktops and windows",
        "Description[ar]": "يسمح لك بإلقاء نظرة عامة على النوافذ وأسطح المكتب الافتراضية",
        "Description[az]": "Pəncərələrə və iş masalarına ümumi baxışa imkan yaradır",
        "Description[ca@valencia]": "Permet una vista general dels escriptoris virtuals i les finestres",
        "Description[ca]": "Permet una vista general dels escriptoris virtuals i les finestres",
        "Description[cs]": "Umožňuje vám zobrazit si přehled virtuálních pracovních ploch a oken",
        "Description[es]": "Le permite mostrar una vista general de los escritorios virtuales y de las ventanas",
        "Description[fi]": "Antaa yleiskuvan virtuaalityöpöydistä ikkunoineen",
        "Description[fr]": "Permet d'avoir un aperçu des bureaux virtuels et  des fenêtres",
        "Description[hu]": "Lehetővé teszi a virtuális asztalok és ablakok áttekintését",
        "Description[ia]": "Permitte te a supervider scriptorios virtual e fenestre",
        "Description[it]": "Consente di visualizzare una panoramica di desktop e finestre virtuali",
        "Description[ko]": "가상 바탕 화면과 창 한눈에 보기",
        "Description[nl]": "Biedt u een overzicht van virtuele bureaubladen en vensters",
        "Description[pl]": "Umożliwia przeglądanie wirtualnych pulpitów i okien",
        "Description[pt_BR]": "Permite-lhe ter uma visão geral das áreas de trabalho virtuais e janelas",
        "Description[sl]": "Omogoča pregled virtualnih namizij in oken",
        "Description[sv]": "Ger dig en översikt av virtuella skrivbord och fönster",
        "Description[uk]": "Надає вам змогу оглядати віртуальні стільниці і вікна",
        "Description[vi]": "Cho phép bạn xem tổng quan các bàn làm việc ảo và các cửa sổ",
        "Description[x-test]": "xxAllows you to overview virtual desktops and windowsxx",
        "Description[zh_CN]": "用于显示所有虚拟桌面和窗口的总览图",
        "EnabledByDefault": false,
        "Id": "overview",
        "License": "GPL",
        "Name": "Overview",
        "Name[ar]": "نظرة عامة",
        "Name[az]": "Ümumi Baxış",
        "Name[ca@valencia]": "Vista general",
        "Name[ca]": "Vista general",
        "Name[cs]": "Přehled",
        "Name[es]": "Vista general",
        "Name[fi]": "Yleiskuva",
        "Name[fr]": "Aperçu",
        "Name[hu]": "Áttekintés",
        "Name[ia]": "Vista de insimul",
        "Name[it]": "Panoramica",
        "Name[ko]": "한눈에 보기",
        "Name[nl]": "Overzicht",
        "Name[pl]": "Przegląd",
        "Name[pt_BR]": "Visão geral",
        "Name[sl]": "Pregled",
        "Name[sv]": "Översikt",
        "Name[uk]": "Огляд",
        "Name[vi]": "Tổng quan",
        "Name[x-test]": "xxOverviewxx",
        "Name[zh_CN]": "桌面总览图"
    },
    "X-KDE-ConfigModule": "kwin_overview_config",
    "org.kde.kwin.effect": {
        "video": "https://files.kde.org/plasma/kwin/effect-videos/present_windows.mp4"
    }
}
