{
    "KPlugin": {
        "Category": "Accessibility",
        "Description": "Display a mouse cursor locating effect when activated",
        "Description[az]": "Ekranda kursorun yerini göstərir",
        "Description[ca@valencia]": "Mostra un efecte de posició del cursor del ratolí quan està activat",
        "Description[ca]": "Mostra un efecte de posició del cursor del ratolí quan està activat",
        "Description[cs]": "Zobrazuje při aktivaci efekt zvýrazňující pozici kurzoru myši",
        "Description[es]": "Muestra un efecto de localización del cursor del ratón cuando se activa",
        "Description[fi]": "Näytä aktivoitaessa hiiriosoittimen jäljitystehoste",
        "Description[fr]": "Afficher un effet indiquant la position du pointeur de la souris quand activé",
        "Description[hu]": "Aktiváláskor megjelenít egy effektust az egérkurzor megtalálásához",
        "Description[ia]": "Monstra un effecto de location de mus quando activate",
        "Description[it]": "Visualizza un effetto di posizionamento del puntatore del mouse quando è attivato",
        "Description[ko]": "활성화되었을 때 마우스 커서의 위치를 표시합니다",
        "Description[nl]": "Toont de positie van de muisaanwijzer wanneer geactiveerd",
        "Description[pl]": "Wyświetla efekt wskazujący położenie wskaźnika myszy",
        "Description[pt_BR]": "Mostra um efeito de localização do ponteiro do mouse quando ativada",
        "Description[sl]": "Prikaži prostorski učinek kazalca miške, ko je aktiviran",
        "Description[sv]": "Visa en lokaliseringseffekt för muspekaren om aktiverad",
        "Description[uk]": "Показ наближення вказівника миші",
        "Description[vi]": "Khi được kích hoạt, hiển thị một hiệu ứng định vị con trỏ chuột",
        "Description[x-test]": "xxDisplay a mouse cursor locating effect when activatedxx",
        "Description[zh_CN]": "激活时突出显示鼠标所在位置",
        "EnabledByDefault": false,
        "Id": "trackmouse",
        "License": "GPL",
        "Name": "Track Mouse",
        "Name[ar]": "تتبع الفارة",
        "Name[az]": "Kursorun izi",
        "Name[ca@valencia]": "Seguiment del ratolí",
        "Name[ca]": "Seguiment del ratolí",
        "Name[cs]": "Sledování myši",
        "Name[es]": "Seguimiento del ratón",
        "Name[fi]": "Hiiren jäljitys",
        "Name[fr]": "Suivi de la souris",
        "Name[hu]": "Egérkövetés",
        "Name[ia]": "Tracia mus",
        "Name[it]": "Trova il mouse",
        "Name[ko]": "마우스 추적",
        "Name[nl]": "Muis volgen",
        "Name[pl]": "Śledzenie myszy",
        "Name[pt]": "Seguir o Rato",
        "Name[pt_BR]": "Seguir o mouse",
        "Name[sl]": "Sledi miški",
        "Name[sv]": "Följ musen",
        "Name[uk]": "Сліди мишки",
        "Name[vi]": "Theo dõi chuột",
        "Name[x-test]": "xxTrack Mousexx",
        "Name[zh_CN]": "鼠标定位"
    },
    "X-KDE-ConfigModule": "kwin_trackmouse_config",
    "org.kde.kwin.effect": {
        "video": "https://files.kde.org/plasma/kwin/effect-videos/track_mouse.mp4"
    }
}
